{
  "apps": [{
    "name": "prod",
    "script": "npm",
    "args": "run start-pord",
    "env": {
      "NODE_ENV": "production"
    }
  }, {
    "name": "test-generate",
    "script": "test.js",
    "args": "",
    "env": {
      "NODE_ENV": "production"
    }
  }]
}
