{
  "logistics": [{
      "name": "代客下单",
      "href": "/my/place-order"
    },
    {
      "name": "网点订单",
      "href": "/my/logistics-outlet-order"
    },
    {
      "name": "网点管理",
      "href": "/my/logistics-outlet"
    }
  ],
  "outlet": [{
      "name": "代客下单",
      "href": "/my/place-order"
    },
    {
      "name": "网点订单",
      "href": "/my/logistics-outlet-order"
    }
  ],
  "customer": [{
    "name": "在线下单",
    "href": "/my/place-order"
  }, {
    "name": "我的订单",
    "href": "/my/customer-order"
  }]
}
